2021-01-28T01:15:47+00:00 CRITICAL require_once(): Failed opening required 'D:\public_html\test_p2\wp_demo/wp-content/themes/flatsome-child-duocsy/assets/libs/smarty/Smarty.class.php' (include_path='C:\xampp735\php\PEAR') in D:\public_html\test_p2\wp_demo\wp-content\themes\flatsome-child-duocsy\inc\init.php on line 11

2021-01-28T01:15:52+00:00 CRITICAL require_once(): Failed opening required 'D:\public_html\test_p2\wp_demo/wp-content/themes/flatsome-child-duocsy/assets/libs/smarty/Smarty.class.php' (include_path='C:\xampp735\php\PEAR') in D:\public_html\test_p2\wp_demo\wp-content\themes\flatsome-child-duocsy\inc\init.php on line 11

2021-01-28T01:15:55+00:00 CRITICAL require_once(): Failed opening required 'D:\public_html\test_p2\wp_demo/wp-content/themes/flatsome-child-duocsy/assets/libs/smarty/Smarty.class.php' (include_path='C:\xampp735\php\PEAR') in D:\public_html\test_p2\wp_demo\wp-content\themes\flatsome-child-duocsy\inc\init.php on line 11

2021-01-28T02:10:59+00:00 CRITICAL Uncaught  --> Smarty Compiler: Syntax error in template "file:D:\public_html\test_p2\wp_demo\wp-content\themes\flatsome-child-mhs\block\shop\block_product_item\block_product_item_group_home.tpl"  on line 56 "<div class="yith-wcwl-add-to-wishlist add-to-wishlist-1071  wishlist-fragment on-first-load" data-fragment-ref="1071" data-fragment-options="{&quot;base_url&quot;:&quot;&quot;,&quot;in_default_wishlist&quot;:false,&quot;is_single&quot;:false,&quot;show_exists&quot;:false,&quot;product_id&quot;:1071,&quot;parent_product_id&quot;:1071,&quot;product_type&quot;:&quot;simple&quot;,&quot;show_view&quot;:false,&quot;browse_wishlist_text&quot;:&quot;Browse wishlist&quot;,&quot;already_in_wishslist_text&quot;:&quot;The product is already in the wishlist!&quot;,&quot;product_added_text&quot;:&quot;Product was added to wishlist successfully&quot;,&quot;heading_icon&quot;:&quot;&quot;,&quot;available_multi_wishlist&quot;:false,&quot;disable_wishlist&quot;:false,&quot;show_count&quot;:false,&quot;ajax_loading&quot;:fa in D:\public_html\test_p2\wp_demo\wp-content\themes\flatsome\assets\libs\smarty\sysplugins\smarty_internal_templatecompilerbase.php on line 56

2021-01-28T02:12:31+00:00 CRITICAL Uncaught  --> Smarty Compiler: Syntax error in template "file:D:\public_html\test_p2\wp_demo\wp-content\themes\flatsome-child-mhs\block\shop\block_product_item\block_product_item_group_home.tpl"  on line 56 "<div class="yith-wcwl-add-to-wishlist add-to-wishlist-1071  wishlist-fragment on-first-load" data-fragment-ref="1071" data-fragment-options="{&quot;base_url&quot;:&quot;&quot;,&quot;in_default_wishlist&quot;:false,&quot;is_single&quot;:false,&quot;show_exists&quot;:false,&quot;product_id&quot;:1071,&quot;parent_product_id&quot;:1071,&quot;product_type&quot;:&quot;simple&quot;,&quot;show_view&quot;:false,&quot;browse_wishlist_text&quot;:&quot;Browse wishlist&quot;,&quot;already_in_wishslist_text&quot;:&quot;The product is already in the wishlist!&quot;,&quot;product_added_text&quot;:&quot;Product was added to wishlist successfully&quot;,&quot;heading_icon&quot;:&quot;&quot;,&quot;available_multi_wishlist&quot;:false,&quot;disable_wishlist&quot;:false,&quot;show_count&quot;:false,&quot;ajax_loading&quot;:fa in D:\public_html\test_p2\wp_demo\wp-content\themes\flatsome\assets\libs\smarty\sysplugins\smarty_internal_templatecompilerbase.php on line 56

2021-01-28T02:16:05+00:00 CRITICAL Uncaught  --> Smarty Compiler: Syntax error in template "file:D:\public_html\test_p2\wp_demo\wp-content\themes\flatsome-child-mhs\block\shop\block_product_item\block_product_item_group_home.tpl"  on line 56 "<div class="yith-wcwl-add-to-wishlist add-to-wishlist-1071  wishlist-fragment on-first-load" data-fragment-ref="1071" data-fragment-options="{&quot;base_url&quot;:&quot;&quot;,&quot;in_default_wishlist&quot;:false,&quot;is_single&quot;:false,&quot;show_exists&quot;:false,&quot;product_id&quot;:1071,&quot;parent_product_id&quot;:1071,&quot;product_type&quot;:&quot;simple&quot;,&quot;show_view&quot;:false,&quot;browse_wishlist_text&quot;:&quot;Browse wishlist&quot;,&quot;already_in_wishslist_text&quot;:&quot;The product is already in the wishlist!&quot;,&quot;product_added_text&quot;:&quot;Product was added to wishlist successfully&quot;,&quot;heading_icon&quot;:&quot;&quot;,&quot;available_multi_wishlist&quot;:false,&quot;disable_wishlist&quot;:false,&quot;show_count&quot;:false,&quot;ajax_loading&quot;:fa in D:\public_html\test_p2\wp_demo\wp-content\themes\flatsome\assets\libs\smarty\sysplugins\smarty_internal_templatecompilerbase.php on line 56

2021-01-28T02:29:48+00:00 CRITICAL Uncaught Error: Call to a member function get_gallery_image_ids() on bool in D:\public_html\test_p2\wp_demo\wp-content\themes\flatsome-child-mhs\woocommerce\content-single-product-lightbox.php:8
Stack trace:
#0 D:\public_html\test_p2\wp_demo\wp-content\plugins\woocommerce\includes\wc-core-functions.php(249): include()
#1 D:\public_html\test_p2\wp_demo\wp-content\themes\flatsome\inc\extensions\flatsome-wc-quick-view\flatsome-quick-view.php(41): wc_get_template('content-single-...')
#2 D:\public_html\test_p2\wp_demo\wp-includes\class-wp-hook.php(288): flatsome_quickview('')
#3 D:\public_html\test_p2\wp_demo\wp-includes\class-wp-hook.php(312): WP_Hook->apply_filters('', Array)
#4 D:\public_html\test_p2\wp_demo\wp-includes\plugin.php(478): WP_Hook->do_action(Array)
#5 D:\public_html\test_p2\wp_demo\wp-admin\admin-ajax.php(175): do_action('wp_ajax_flatsom...')
#6 {main}
  thrown in D:\public_html\test_p2\wp_demo\wp-content\themes\flatsome-child-mhs\woocommerce\content-single-product-lightbox.php on line 8

2021-01-28T02:29:50+00:00 CRITICAL Uncaught Error: Call to a member function get_gallery_image_ids() on bool in D:\public_html\test_p2\wp_demo\wp-content\themes\flatsome-child-mhs\woocommerce\content-single-product-lightbox.php:8
Stack trace:
#0 D:\public_html\test_p2\wp_demo\wp-content\plugins\woocommerce\includes\wc-core-functions.php(249): include()
#1 D:\public_html\test_p2\wp_demo\wp-content\themes\flatsome\inc\extensions\flatsome-wc-quick-view\flatsome-quick-view.php(41): wc_get_template('content-single-...')
#2 D:\public_html\test_p2\wp_demo\wp-includes\class-wp-hook.php(288): flatsome_quickview('')
#3 D:\public_html\test_p2\wp_demo\wp-includes\class-wp-hook.php(312): WP_Hook->apply_filters('', Array)
#4 D:\public_html\test_p2\wp_demo\wp-includes\plugin.php(478): WP_Hook->do_action(Array)
#5 D:\public_html\test_p2\wp_demo\wp-admin\admin-ajax.php(175): do_action('wp_ajax_flatsom...')
#6 {main}
  thrown in D:\public_html\test_p2\wp_demo\wp-content\themes\flatsome-child-mhs\woocommerce\content-single-product-lightbox.php on line 8

2021-01-28T02:29:54+00:00 CRITICAL Uncaught Error: Call to a member function get_gallery_image_ids() on bool in D:\public_html\test_p2\wp_demo\wp-content\themes\flatsome-child-mhs\woocommerce\content-single-product-lightbox.php:8
Stack trace:
#0 D:\public_html\test_p2\wp_demo\wp-content\plugins\woocommerce\includes\wc-core-functions.php(249): include()
#1 D:\public_html\test_p2\wp_demo\wp-content\themes\flatsome\inc\extensions\flatsome-wc-quick-view\flatsome-quick-view.php(41): wc_get_template('content-single-...')
#2 D:\public_html\test_p2\wp_demo\wp-includes\class-wp-hook.php(288): flatsome_quickview('')
#3 D:\public_html\test_p2\wp_demo\wp-includes\class-wp-hook.php(312): WP_Hook->apply_filters('', Array)
#4 D:\public_html\test_p2\wp_demo\wp-includes\plugin.php(478): WP_Hook->do_action(Array)
#5 D:\public_html\test_p2\wp_demo\wp-admin\admin-ajax.php(175): do_action('wp_ajax_flatsom...')
#6 {main}
  thrown in D:\public_html\test_p2\wp_demo\wp-content\themes\flatsome-child-mhs\woocommerce\content-single-product-lightbox.php on line 8

2021-01-28T02:29:59+00:00 CRITICAL Uncaught Error: Call to a member function get_gallery_image_ids() on bool in D:\public_html\test_p2\wp_demo\wp-content\themes\flatsome-child-mhs\woocommerce\content-single-product-lightbox.php:8
Stack trace:
#0 D:\public_html\test_p2\wp_demo\wp-content\plugins\woocommerce\includes\wc-core-functions.php(249): include()
#1 D:\public_html\test_p2\wp_demo\wp-content\themes\flatsome\inc\extensions\flatsome-wc-quick-view\flatsome-quick-view.php(41): wc_get_template('content-single-...')
#2 D:\public_html\test_p2\wp_demo\wp-includes\class-wp-hook.php(288): flatsome_quickview('')
#3 D:\public_html\test_p2\wp_demo\wp-includes\class-wp-hook.php(312): WP_Hook->apply_filters('', Array)
#4 D:\public_html\test_p2\wp_demo\wp-includes\plugin.php(478): WP_Hook->do_action(Array)
#5 D:\public_html\test_p2\wp_demo\wp-admin\admin-ajax.php(175): do_action('wp_ajax_flatsom...')
#6 {main}
  thrown in D:\public_html\test_p2\wp_demo\wp-content\themes\flatsome-child-mhs\woocommerce\content-single-product-lightbox.php on line 8

